<?xml version="1.0" encoding="UTF-8"?>
<!-- Generator: Adobe Illustrator 15.1.0, SVG Export Plug-In . SVG Version: 6.00 Build 0)  -->
<!DOCTYPE svg PUBLIC "-//W3C//DTD SVG 1.1//EN" "http://www.w3.org/Graphics/SVG/1.1/DTD/svg11.dtd">
<svg version="1.1" id="Wikimedia_logo" xmlns="http://www.w3.org/2000/svg" xmlns:xlink="http://www.w3.org/1999/xlink" x="0px" y="0px" width="970px" height="940px" viewBox="26.5 46.5 970 940" enable-background="new 26.5 46.5 970 940" xml:space="preserve">
<g>
	<defs>
		<polygon id="SVGID_1_" points="552.602,427.378 552.602,790.65 471.399,790.65 471.399,427.378 -0.427,-44.448 -0.427,1024     1024.428,1024 1024.428,-44.448   "/>
	</defs>
	<clipPath id="SVGID_2_">
		<use xlink:href="#SVGID_1_" overflow="visible"/>
	</clipPath>
	<g clip-path="url(#SVGID_2_)">
		<circle id="blue_arc" fill="none" stroke="#216498" stroke-width="135.5" cx="512" cy="502.17" r="410.498"/>
		<g>
			<defs>
				<circle id="green_parts" cx="508.346" cy="502.17" r="287.626"/>
			</defs>
			<clipPath id="green_parts_1_">
				<use xlink:href="#green_parts" overflow="visible"/>
			</clipPath>
			<g clip-path="url(#green_parts_1_)">
				<rect x="220.923" y="214.543" fill="#B30606" width="83" height="575.252"/>
				<rect x="303.923" y="214.543" fill="#D36506" width="83" height="575.252"/>
				<rect x="386.923" y="214.543" fill="#D4AE14" width="83" height="575.252"/>
				<rect x="559.288" y="214.543" fill="#55A20A" width="83" height="575.252"/>
				<rect x="642.173" y="214.543" fill="#306497" width="83" height="575.252"/>
				<rect x="724.173" y="214.543" fill="#663E6E" width="83" height="575.252"/>
			</g>
		</g>
	</g>
</g>
<polyline fill="#BC0AB8" points="512,326.5 247.577,51.5 776.423,51.5 "/>
</svg>